Created by PLY version 3.11 (http://www.dabeaz.com/ply)

Grammar

Rule 0     S' -> regle_binop
Rule 1     regle_binop -> regle_binop PLUS regle_binop
Rule 2     regle_binop -> regle_binop MOINS regle_binop
Rule 3     regle_binop -> regle_mul_div
Rule 4     regle_mul_div -> regle_mul_div MUL regle_mul_div
Rule 5     regle_mul_div -> regle_mul_div DIV regle_mul_div
Rule 6     regle_mul_div -> regle_neg
Rule 7     regle_mul_div -> regle_nb
Rule 8     regle_mul_div -> regle_parentheses
Rule 9     regle_mul_div -> regle_assign
Rule 10    regle_mul_div -> regle_variable
Rule 11    regle_nb -> NB
Rule 12    regle_neg -> NEG NBN
Rule 13    regle_parentheses -> LPAREN regle_binop RPAREN
Rule 14    regle_assign -> VARIABLE EQUALS regle_binop
Rule 15    regle_variable -> VARIABLE

Terminals, with rules where they appear

DIV                  : 5
EQUALS               : 14
LPAREN               : 13
MOINS                : 2
MUL                  : 4
NB                   : 11
NBN                  : 12
NEG                  : 12
PLUS                 : 1
RPAREN               : 13
VARIABLE             : 14 15
error                : 

Nonterminals, with rules where they appear

regle_assign         : 9
regle_binop          : 1 1 2 2 13 14 0
regle_mul_div        : 3 4 4 5 5
regle_nb             : 7
regle_neg            : 6
regle_parentheses    : 8
regle_variable       : 10

Parsing method: LALR

state 0

    (0) S' -> . regle_binop
    (1) regle_binop -> . regle_binop PLUS regle_binop
    (2) regle_binop -> . regle_binop MOINS regle_binop
    (3) regle_binop -> . regle_mul_div
    (4) regle_mul_div -> . regle_mul_div MUL regle_mul_div
    (5) regle_mul_div -> . regle_mul_div DIV regle_mul_div
    (6) regle_mul_div -> . regle_neg
    (7) regle_mul_div -> . regle_nb
    (8) regle_mul_div -> . regle_parentheses
    (9) regle_mul_div -> . regle_assign
    (10) regle_mul_div -> . regle_variable
    (12) regle_neg -> . NEG NBN
    (11) regle_nb -> . NB
    (13) regle_parentheses -> . LPAREN regle_binop RPAREN
    (14) regle_assign -> . VARIABLE EQUALS regle_binop
    (15) regle_variable -> . VARIABLE

    NEG             shift and go to state 8
    NB              shift and go to state 9
    LPAREN          shift and go to state 10
    VARIABLE        shift and go to state 11

    regle_binop                    shift and go to state 1
    regle_mul_div                  shift and go to state 2
    regle_neg                      shift and go to state 3
    regle_nb                       shift and go to state 4
    regle_parentheses              shift and go to state 5
    regle_assign                   shift and go to state 6
    regle_variable                 shift and go to state 7

state 1

    (0) S' -> regle_binop .
    (1) regle_binop -> regle_binop . PLUS regle_binop
    (2) regle_binop -> regle_binop . MOINS regle_binop

    PLUS            shift and go to state 12
    MOINS           shift and go to state 13


state 2

    (3) regle_binop -> regle_mul_div .
    (4) regle_mul_div -> regle_mul_div . MUL regle_mul_div
    (5) regle_mul_div -> regle_mul_div . DIV regle_mul_div

  ! shift/reduce conflict for MUL resolved as shift
  ! shift/reduce conflict for DIV resolved as shift
    PLUS            reduce using rule 3 (regle_binop -> regle_mul_div .)
    MOINS           reduce using rule 3 (regle_binop -> regle_mul_div .)
    $end            reduce using rule 3 (regle_binop -> regle_mul_div .)
    RPAREN          reduce using rule 3 (regle_binop -> regle_mul_div .)
    MUL             shift and go to state 14
    DIV             shift and go to state 15

  ! MUL             [ reduce using rule 3 (regle_binop -> regle_mul_div .) ]
  ! DIV             [ reduce using rule 3 (regle_binop -> regle_mul_div .) ]


state 3

    (6) regle_mul_div -> regle_neg .

    MUL             reduce using rule 6 (regle_mul_div -> regle_neg .)
    DIV             reduce using rule 6 (regle_mul_div -> regle_neg .)
    PLUS            reduce using rule 6 (regle_mul_div -> regle_neg .)
    MOINS           reduce using rule 6 (regle_mul_div -> regle_neg .)
    $end            reduce using rule 6 (regle_mul_div -> regle_neg .)
    RPAREN          reduce using rule 6 (regle_mul_div -> regle_neg .)


state 4

    (7) regle_mul_div -> regle_nb .

    MUL             reduce using rule 7 (regle_mul_div -> regle_nb .)
    DIV             reduce using rule 7 (regle_mul_div -> regle_nb .)
    PLUS            reduce using rule 7 (regle_mul_div -> regle_nb .)
    MOINS           reduce using rule 7 (regle_mul_div -> regle_nb .)
    $end            reduce using rule 7 (regle_mul_div -> regle_nb .)
    RPAREN          reduce using rule 7 (regle_mul_div -> regle_nb .)


state 5

    (8) regle_mul_div -> regle_parentheses .

    MUL             reduce using rule 8 (regle_mul_div -> regle_parentheses .)
    DIV             reduce using rule 8 (regle_mul_div -> regle_parentheses .)
    PLUS            reduce using rule 8 (regle_mul_div -> regle_parentheses .)
    MOINS           reduce using rule 8 (regle_mul_div -> regle_parentheses .)
    $end            reduce using rule 8 (regle_mul_div -> regle_parentheses .)
    RPAREN          reduce using rule 8 (regle_mul_div -> regle_parentheses .)


state 6

    (9) regle_mul_div -> regle_assign .

    MUL             reduce using rule 9 (regle_mul_div -> regle_assign .)
    DIV             reduce using rule 9 (regle_mul_div -> regle_assign .)
    PLUS            reduce using rule 9 (regle_mul_div -> regle_assign .)
    MOINS           reduce using rule 9 (regle_mul_div -> regle_assign .)
    $end            reduce using rule 9 (regle_mul_div -> regle_assign .)
    RPAREN          reduce using rule 9 (regle_mul_div -> regle_assign .)


state 7

    (10) regle_mul_div -> regle_variable .

    MUL             reduce using rule 10 (regle_mul_div -> regle_variable .)
    DIV             reduce using rule 10 (regle_mul_div -> regle_variable .)
    PLUS            reduce using rule 10 (regle_mul_div -> regle_variable .)
    MOINS           reduce using rule 10 (regle_mul_div -> regle_variable .)
    $end            reduce using rule 10 (regle_mul_div -> regle_variable .)
    RPAREN          reduce using rule 10 (regle_mul_div -> regle_variable .)


state 8

    (12) regle_neg -> NEG . NBN

    NBN             shift and go to state 16


state 9

    (11) regle_nb -> NB .

    MUL             reduce using rule 11 (regle_nb -> NB .)
    DIV             reduce using rule 11 (regle_nb -> NB .)
    PLUS            reduce using rule 11 (regle_nb -> NB .)
    MOINS           reduce using rule 11 (regle_nb -> NB .)
    $end            reduce using rule 11 (regle_nb -> NB .)
    RPAREN          reduce using rule 11 (regle_nb -> NB .)


state 10

    (13) regle_parentheses -> LPAREN . regle_binop RPAREN
    (1) regle_binop -> . regle_binop PLUS regle_binop
    (2) regle_binop -> . regle_binop MOINS regle_binop
    (3) regle_binop -> . regle_mul_div
    (4) regle_mul_div -> . regle_mul_div MUL regle_mul_div
    (5) regle_mul_div -> . regle_mul_div DIV regle_mul_div
    (6) regle_mul_div -> . regle_neg
    (7) regle_mul_div -> . regle_nb
    (8) regle_mul_div -> . regle_parentheses
    (9) regle_mul_div -> . regle_assign
    (10) regle_mul_div -> . regle_variable
    (12) regle_neg -> . NEG NBN
    (11) regle_nb -> . NB
    (13) regle_parentheses -> . LPAREN regle_binop RPAREN
    (14) regle_assign -> . VARIABLE EQUALS regle_binop
    (15) regle_variable -> . VARIABLE

    NEG             shift and go to state 8
    NB              shift and go to state 9
    LPAREN          shift and go to state 10
    VARIABLE        shift and go to state 11

    regle_binop                    shift and go to state 17
    regle_mul_div                  shift and go to state 2
    regle_neg                      shift and go to state 3
    regle_nb                       shift and go to state 4
    regle_parentheses              shift and go to state 5
    regle_assign                   shift and go to state 6
    regle_variable                 shift and go to state 7

state 11

    (14) regle_assign -> VARIABLE . EQUALS regle_binop
    (15) regle_variable -> VARIABLE .

    EQUALS          shift and go to state 18
    MUL             reduce using rule 15 (regle_variable -> VARIABLE .)
    DIV             reduce using rule 15 (regle_variable -> VARIABLE .)
    PLUS            reduce using rule 15 (regle_variable -> VARIABLE .)
    MOINS           reduce using rule 15 (regle_variable -> VARIABLE .)
    $end            reduce using rule 15 (regle_variable -> VARIABLE .)
    RPAREN          reduce using rule 15 (regle_variable -> VARIABLE .)


state 12

    (1) regle_binop -> regle_binop PLUS . regle_binop
    (1) regle_binop -> . regle_binop PLUS regle_binop
    (2) regle_binop -> . regle_binop MOINS regle_binop
    (3) regle_binop -> . regle_mul_div
    (4) regle_mul_div -> . regle_mul_div MUL regle_mul_div
    (5) regle_mul_div -> . regle_mul_div DIV regle_mul_div
    (6) regle_mul_div -> . regle_neg
    (7) regle_mul_div -> . regle_nb
    (8) regle_mul_div -> . regle_parentheses
    (9) regle_mul_div -> . regle_assign
    (10) regle_mul_div -> . regle_variable
    (12) regle_neg -> . NEG NBN
    (11) regle_nb -> . NB
    (13) regle_parentheses -> . LPAREN regle_binop RPAREN
    (14) regle_assign -> . VARIABLE EQUALS regle_binop
    (15) regle_variable -> . VARIABLE

    NEG             shift and go to state 8
    NB              shift and go to state 9
    LPAREN          shift and go to state 10
    VARIABLE        shift and go to state 11

    regle_binop                    shift and go to state 19
    regle_mul_div                  shift and go to state 2
    regle_neg                      shift and go to state 3
    regle_nb                       shift and go to state 4
    regle_parentheses              shift and go to state 5
    regle_assign                   shift and go to state 6
    regle_variable                 shift and go to state 7

state 13

    (2) regle_binop -> regle_binop MOINS . regle_binop
    (1) regle_binop -> . regle_binop PLUS regle_binop
    (2) regle_binop -> . regle_binop MOINS regle_binop
    (3) regle_binop -> . regle_mul_div
    (4) regle_mul_div -> . regle_mul_div MUL regle_mul_div
    (5) regle_mul_div -> . regle_mul_div DIV regle_mul_div
    (6) regle_mul_div -> . regle_neg
    (7) regle_mul_div -> . regle_nb
    (8) regle_mul_div -> . regle_parentheses
    (9) regle_mul_div -> . regle_assign
    (10) regle_mul_div -> . regle_variable
    (12) regle_neg -> . NEG NBN
    (11) regle_nb -> . NB
    (13) regle_parentheses -> . LPAREN regle_binop RPAREN
    (14) regle_assign -> . VARIABLE EQUALS regle_binop
    (15) regle_variable -> . VARIABLE

    NEG             shift and go to state 8
    NB              shift and go to state 9
    LPAREN          shift and go to state 10
    VARIABLE        shift and go to state 11

    regle_binop                    shift and go to state 20
    regle_mul_div                  shift and go to state 2
    regle_neg                      shift and go to state 3
    regle_nb                       shift and go to state 4
    regle_parentheses              shift and go to state 5
    regle_assign                   shift and go to state 6
    regle_variable                 shift and go to state 7

state 14

    (4) regle_mul_div -> regle_mul_div MUL . regle_mul_div
    (4) regle_mul_div -> . regle_mul_div MUL regle_mul_div
    (5) regle_mul_div -> . regle_mul_div DIV regle_mul_div
    (6) regle_mul_div -> . regle_neg
    (7) regle_mul_div -> . regle_nb
    (8) regle_mul_div -> . regle_parentheses
    (9) regle_mul_div -> . regle_assign
    (10) regle_mul_div -> . regle_variable
    (12) regle_neg -> . NEG NBN
    (11) regle_nb -> . NB
    (13) regle_parentheses -> . LPAREN regle_binop RPAREN
    (14) regle_assign -> . VARIABLE EQUALS regle_binop
    (15) regle_variable -> . VARIABLE

    NEG             shift and go to state 8
    NB              shift and go to state 9
    LPAREN          shift and go to state 10
    VARIABLE        shift and go to state 11

    regle_mul_div                  shift and go to state 21
    regle_neg                      shift and go to state 3
    regle_nb                       shift and go to state 4
    regle_parentheses              shift and go to state 5
    regle_assign                   shift and go to state 6
    regle_variable                 shift and go to state 7

state 15

    (5) regle_mul_div -> regle_mul_div DIV . regle_mul_div
    (4) regle_mul_div -> . regle_mul_div MUL regle_mul_div
    (5) regle_mul_div -> . regle_mul_div DIV regle_mul_div
    (6) regle_mul_div -> . regle_neg
    (7) regle_mul_div -> . regle_nb
    (8) regle_mul_div -> . regle_parentheses
    (9) regle_mul_div -> . regle_assign
    (10) regle_mul_div -> . regle_variable
    (12) regle_neg -> . NEG NBN
    (11) regle_nb -> . NB
    (13) regle_parentheses -> . LPAREN regle_binop RPAREN
    (14) regle_assign -> . VARIABLE EQUALS regle_binop
    (15) regle_variable -> . VARIABLE

    NEG             shift and go to state 8
    NB              shift and go to state 9
    LPAREN          shift and go to state 10
    VARIABLE        shift and go to state 11

    regle_mul_div                  shift and go to state 22
    regle_neg                      shift and go to state 3
    regle_nb                       shift and go to state 4
    regle_parentheses              shift and go to state 5
    regle_assign                   shift and go to state 6
    regle_variable                 shift and go to state 7

state 16

    (12) regle_neg -> NEG NBN .

    MUL             reduce using rule 12 (regle_neg -> NEG NBN .)
    DIV             reduce using rule 12 (regle_neg -> NEG NBN .)
    PLUS            reduce using rule 12 (regle_neg -> NEG NBN .)
    MOINS           reduce using rule 12 (regle_neg -> NEG NBN .)
    $end            reduce using rule 12 (regle_neg -> NEG NBN .)
    RPAREN          reduce using rule 12 (regle_neg -> NEG NBN .)


state 17

    (13) regle_parentheses -> LPAREN regle_binop . RPAREN
    (1) regle_binop -> regle_binop . PLUS regle_binop
    (2) regle_binop -> regle_binop . MOINS regle_binop

    RPAREN          shift and go to state 23
    PLUS            shift and go to state 12
    MOINS           shift and go to state 13


state 18

    (14) regle_assign -> VARIABLE EQUALS . regle_binop
    (1) regle_binop -> . regle_binop PLUS regle_binop
    (2) regle_binop -> . regle_binop MOINS regle_binop
    (3) regle_binop -> . regle_mul_div
    (4) regle_mul_div -> . regle_mul_div MUL regle_mul_div
    (5) regle_mul_div -> . regle_mul_div DIV regle_mul_div
    (6) regle_mul_div -> . regle_neg
    (7) regle_mul_div -> . regle_nb
    (8) regle_mul_div -> . regle_parentheses
    (9) regle_mul_div -> . regle_assign
    (10) regle_mul_div -> . regle_variable
    (12) regle_neg -> . NEG NBN
    (11) regle_nb -> . NB
    (13) regle_parentheses -> . LPAREN regle_binop RPAREN
    (14) regle_assign -> . VARIABLE EQUALS regle_binop
    (15) regle_variable -> . VARIABLE

    NEG             shift and go to state 8
    NB              shift and go to state 9
    LPAREN          shift and go to state 10
    VARIABLE        shift and go to state 11

    regle_binop                    shift and go to state 24
    regle_mul_div                  shift and go to state 2
    regle_neg                      shift and go to state 3
    regle_nb                       shift and go to state 4
    regle_parentheses              shift and go to state 5
    regle_assign                   shift and go to state 6
    regle_variable                 shift and go to state 7

state 19

    (1) regle_binop -> regle_binop PLUS regle_binop .
    (1) regle_binop -> regle_binop . PLUS regle_binop
    (2) regle_binop -> regle_binop . MOINS regle_binop

  ! shift/reduce conflict for PLUS resolved as shift
  ! shift/reduce conflict for MOINS resolved as shift
    $end            reduce using rule 1 (regle_binop -> regle_binop PLUS regle_binop .)
    RPAREN          reduce using rule 1 (regle_binop -> regle_binop PLUS regle_binop .)
    MUL             reduce using rule 1 (regle_binop -> regle_binop PLUS regle_binop .)
    DIV             reduce using rule 1 (regle_binop -> regle_binop PLUS regle_binop .)
    PLUS            shift and go to state 12
    MOINS           shift and go to state 13

  ! PLUS            [ reduce using rule 1 (regle_binop -> regle_binop PLUS regle_binop .) ]
  ! MOINS           [ reduce using rule 1 (regle_binop -> regle_binop PLUS regle_binop .) ]


state 20

    (2) regle_binop -> regle_binop MOINS regle_binop .
    (1) regle_binop -> regle_binop . PLUS regle_binop
    (2) regle_binop -> regle_binop . MOINS regle_binop

  ! shift/reduce conflict for PLUS resolved as shift
  ! shift/reduce conflict for MOINS resolved as shift
    $end            reduce using rule 2 (regle_binop -> regle_binop MOINS regle_binop .)
    RPAREN          reduce using rule 2 (regle_binop -> regle_binop MOINS regle_binop .)
    MUL             reduce using rule 2 (regle_binop -> regle_binop MOINS regle_binop .)
    DIV             reduce using rule 2 (regle_binop -> regle_binop MOINS regle_binop .)
    PLUS            shift and go to state 12
    MOINS           shift and go to state 13

  ! PLUS            [ reduce using rule 2 (regle_binop -> regle_binop MOINS regle_binop .) ]
  ! MOINS           [ reduce using rule 2 (regle_binop -> regle_binop MOINS regle_binop .) ]


state 21

    (4) regle_mul_div -> regle_mul_div MUL regle_mul_div .
    (4) regle_mul_div -> regle_mul_div . MUL regle_mul_div
    (5) regle_mul_div -> regle_mul_div . DIV regle_mul_div

  ! shift/reduce conflict for MUL resolved as shift
  ! shift/reduce conflict for DIV resolved as shift
    PLUS            reduce using rule 4 (regle_mul_div -> regle_mul_div MUL regle_mul_div .)
    MOINS           reduce using rule 4 (regle_mul_div -> regle_mul_div MUL regle_mul_div .)
    $end            reduce using rule 4 (regle_mul_div -> regle_mul_div MUL regle_mul_div .)
    RPAREN          reduce using rule 4 (regle_mul_div -> regle_mul_div MUL regle_mul_div .)
    MUL             shift and go to state 14
    DIV             shift and go to state 15

  ! MUL             [ reduce using rule 4 (regle_mul_div -> regle_mul_div MUL regle_mul_div .) ]
  ! DIV             [ reduce using rule 4 (regle_mul_div -> regle_mul_div MUL regle_mul_div .) ]


state 22

    (5) regle_mul_div -> regle_mul_div DIV regle_mul_div .
    (4) regle_mul_div -> regle_mul_div . MUL regle_mul_div
    (5) regle_mul_div -> regle_mul_div . DIV regle_mul_div

  ! shift/reduce conflict for MUL resolved as shift
  ! shift/reduce conflict for DIV resolved as shift
    PLUS            reduce using rule 5 (regle_mul_div -> regle_mul_div DIV regle_mul_div .)
    MOINS           reduce using rule 5 (regle_mul_div -> regle_mul_div DIV regle_mul_div .)
    $end            reduce using rule 5 (regle_mul_div -> regle_mul_div DIV regle_mul_div .)
    RPAREN          reduce using rule 5 (regle_mul_div -> regle_mul_div DIV regle_mul_div .)
    MUL             shift and go to state 14
    DIV             shift and go to state 15

  ! MUL             [ reduce using rule 5 (regle_mul_div -> regle_mul_div DIV regle_mul_div .) ]
  ! DIV             [ reduce using rule 5 (regle_mul_div -> regle_mul_div DIV regle_mul_div .) ]


state 23

    (13) regle_parentheses -> LPAREN regle_binop RPAREN .

    MUL             reduce using rule 13 (regle_parentheses -> LPAREN regle_binop RPAREN .)
    DIV             reduce using rule 13 (regle_parentheses -> LPAREN regle_binop RPAREN .)
    PLUS            reduce using rule 13 (regle_parentheses -> LPAREN regle_binop RPAREN .)
    MOINS           reduce using rule 13 (regle_parentheses -> LPAREN regle_binop RPAREN .)
    $end            reduce using rule 13 (regle_parentheses -> LPAREN regle_binop RPAREN .)
    RPAREN          reduce using rule 13 (regle_parentheses -> LPAREN regle_binop RPAREN .)


state 24

    (14) regle_assign -> VARIABLE EQUALS regle_binop .
    (1) regle_binop -> regle_binop . PLUS regle_binop
    (2) regle_binop -> regle_binop . MOINS regle_binop

  ! shift/reduce conflict for PLUS resolved as shift
  ! shift/reduce conflict for MOINS resolved as shift
    MUL             reduce using rule 14 (regle_assign -> VARIABLE EQUALS regle_binop .)
    DIV             reduce using rule 14 (regle_assign -> VARIABLE EQUALS regle_binop .)
    $end            reduce using rule 14 (regle_assign -> VARIABLE EQUALS regle_binop .)
    RPAREN          reduce using rule 14 (regle_assign -> VARIABLE EQUALS regle_binop .)
    PLUS            shift and go to state 12
    MOINS           shift and go to state 13

  ! PLUS            [ reduce using rule 14 (regle_assign -> VARIABLE EQUALS regle_binop .) ]
  ! MOINS           [ reduce using rule 14 (regle_assign -> VARIABLE EQUALS regle_binop .) ]

WARNING: 
WARNING: Conflicts:
WARNING: 
WARNING: shift/reduce conflict for MUL in state 2 resolved as shift
WARNING: shift/reduce conflict for DIV in state 2 resolved as shift
WARNING: shift/reduce conflict for PLUS in state 19 resolved as shift
WARNING: shift/reduce conflict for MOINS in state 19 resolved as shift
WARNING: shift/reduce conflict for PLUS in state 20 resolved as shift
WARNING: shift/reduce conflict for MOINS in state 20 resolved as shift
WARNING: shift/reduce conflict for MUL in state 21 resolved as shift
WARNING: shift/reduce conflict for DIV in state 21 resolved as shift
WARNING: shift/reduce conflict for MUL in state 22 resolved as shift
WARNING: shift/reduce conflict for DIV in state 22 resolved as shift
WARNING: shift/reduce conflict for PLUS in state 24 resolved as shift
WARNING: shift/reduce conflict for MOINS in state 24 resolved as shift
